{
    "code" : 0,
    "msg" : "操作成功",
    "data" : {
        "items" : [
            {
                "id" : 1,
                "name" : "Li Lei"
            },
            {
                "id" : 2,
                "name" : "Hanmeimei"
            },
            {
                "id" : 3,
                "name" : "Lily"
            },
            {
                "id" : 4,
                "name" : "Lucy"
            }
        ],
        "meta":{
            "currentPage":1,
            "pageCount":2,
            "perPage":5,
            "totalCount":6
        },
        "sort":[]
    }
}

